<?xml version="1.0" encoding="UTF-8" standalone="no"?>
<!DOCTYPE svg PUBLIC "-//W3C//DTD SVG 1.1//EN" "http://www.w3.org/Graphics/SVG/1.1/DTD/svg11.dtd">
<!-- Generated by Microsoft Visio, SVG Export FloorPlanPOC-CC6.svg 6th Floor -->
<svg xmlns="http://www.w3.org/2000/svg" xmlns:xlink="http://www.w3.org/1999/xlink" xmlns:ev="http://www.w3.org/2001/xml-events"
		width="8.5in" height="11in" viewBox="0 0 612 792" xml:space="preserve" color-interpolation-filters="sRGB" class="st9">
	<style type="text/css">
	<![CDATA[
		.st1 {fill:#ffffff;stroke:#000000;stroke-linecap:round;stroke-linejoin:round;stroke-width:4.5}
		.st2 {fill:#000000;font-family:Calibri;font-size:1.5em}
		.st3 {fill:#ffc000;fill-opacity:0.098;stroke:#000000;stroke-linecap:round;stroke-linejoin:round;stroke-width:0.75}
		.st4 {fill:#000000;font-family:Calibri;font-size:1.16666em}
		.st5 {stroke:#000000;stroke-linecap:round;stroke-linejoin:round;stroke-width:2.25}
		.st6 {fill:#00a0ae;fill-opacity:0.68;stroke:none;stroke-linecap:round;stroke-linejoin:round;stroke-width:1.5}
		.st7 {fill:#00a0ae;fill-opacity:0.67;stroke:none;stroke-linecap:round;stroke-linejoin:round;stroke-width:1.5}
		.st8 {fill:#000000;font-family:Calibri;font-size:1.00001em}
		.st9 {fill:none;fill-rule:evenodd;font-size:12px;overflow:visible;stroke-linecap:square;stroke-miterlimit:3}
	]]>
	</style>

	<g>
		<title>Congress Center - 6</title>
		<g id="shape1-1" transform="translate(72,-288)">
			<title>Floor Plan.1</title>
			<desc>Congress Center - 6</desc>
			<rect x="0" y="432" width="432" height="360" class="st1"/>
			<text x="144.78" y="774.9" class="st2">Congress Center - 6</text>		</g>
		<g id="shape3-4" transform="translate(72,-290.468)" display="none">
			<title>Work Section.3</title>
			<desc>Business Technology</desc>
			<rect x="0" y="436.5" width="279" height="355.5" class="st3"/>
			<text x="139.29" y="605.51" class="st4">Business Technology</text>		</g>
		<g id="shape4-7" transform="translate(72,-360)">
			<title>Sheet.4</title>
			<path d="M0 792 L234 792" class="st5"/>
		</g>
		<g id="shape5-10" transform="translate(72,-598.5)">
			<title>Sheet.5</title>
			<path d="M0 792 L234.75 792" class="st5"/>
		</g>
		<g id="shape7-13" transform="translate(982.5,194.25) rotate(90)">
			<title>Sheet.7</title>
			<path d="M0 792 L36 792" class="st5"/>
		</g>
		<g id="shape10-16" transform="translate(982.5,394.5) rotate(90)">
			<title>Sheet.10</title>
			<path d="M0 792 L36 792" class="st5"/>
		</g>
		<g id="shape11-19" transform="translate(1098.75,193.5) rotate(90)">
			<title>Sheet.11</title>
			<path d="M0 792 L36 792" class="st5"/>
		</g>
		<g id="shape12-22" transform="translate(1098,396) rotate(90)">
			<title>Sheet.12</title>
			<path d="M0 792 L36 792" class="st5"/>
		</g>
		<g id="group18-25" transform="translate(72.75,-361.5)">
			<title>Section.Group.18</title>
			<desc>Business Technology Services</desc>
			<g id="shape6-26" transform="translate(0.75,-139.5)">
				<title>Employee Space.6</title>
				<desc>Larry Barclay</desc>
				<rect x="0" y="694.5" width="117" height="97.5" class="st6"/>
				<text x="21.88" y="747.45" class="st4">Larry Barclay</text>			</g>
			<g id="shape8-29" transform="translate(117.75,-139.5)">
				<title>Employee Space.8</title>
				<desc>Lloyd Langdon</desc>
				<rect x="0" y="694.5" width="117" height="97.5" class="st7"/>
				<text x="17.52" y="747.45" class="st4">Lloyd Langdon</text>			</g>
			<g id="shape9-32" transform="translate(117,0)">
				<title>Employee Space.9</title>
				<desc>Sandeep Sagar</desc>
				<rect x="0" y="694.5" width="117" height="97.5" class="st6"/>
				<text x="16.69" y="747.45" class="st4">Sandeep Sagar</text>			</g>
			<g id="shape17-35">
				<title>Employee Space.17</title>
				<desc>Mike McDonald</desc>
				<rect x="0" y="694.5" width="117" height="97.5" class="st6"/>
				<text x="13.4" y="747.45" class="st4">Mike McDonald</text>			</g>
			<g id="shape18-38">
				<text x="45.9" y="677.1" class="st8">Business Technology Services</text>			</g>
		</g>
	</g>
</svg>
